-------------------------------------------------------------------------------
Test set: com.service.processor.ApplicationTests
-------------------------------------------------------------------------------
Tests run: 1, Failures: 0, Errors: 0, Skipped: 0, Time elapsed: 5.628 s - in com.service.processor.ApplicationTests
